<?xml version="1.0" encoding="UTF-8" standalone="no"?>
<svg sodipodi:docname="fontaine.svg" inkscape:version="1.1.1 (3bf5ae0d25, 2021-09-20)" version="1.1" id="svg2" viewBox="0 0 450 449.99999" height="45cm" width="45cm" xmlns:inkscape="http://www.inkscape.org/namespaces/inkscape" xmlns:sodipodi="http://sodipodi.sourceforge.net/DTD/sodipodi-0.dtd" xmlns:xlink="http://www.w3.org/1999/xlink" xmlns="http://www.w3.org/2000/svg" xmlns:svg="http://www.w3.org/2000/svg" xmlns:rdf="http://www.w3.org/1999/02/22-rdf-syntax-ns#" xmlns:cc="http://creativecommons.org/ns#" xmlns:dc="http://purl.org/dc/elements/1.1/">
  <defs id="defs4">
    <linearGradient id="linearGradient17012" inkscape:swatch="solid">
      <stop style="stop-color:#0000f0;stop-opacity:1;" offset="0" id="stop17010" />
    </linearGradient>
    <linearGradient id="linearGradient16884" inkscape:swatch="solid">
      <stop style="stop-color:#0000f7;stop-opacity:1;" offset="0" id="stop16882" />
    </linearGradient>
    <rect x="503.46003" y="226.27417" width="642.05296" height="608.11183" id="rect2405" />
    <rect x="435.57778" y="93.338095" width="755.19004" height="876.81241" id="rect2734" />
    <rect x="-968" y="-1760" width="1440" height="1424" id="rect83940" />
    <rect x="-1528" y="-2872" width="2584" height="2056" id="rect54073" />
    <linearGradient id="linearGradient23643" inkscape:swatch="solid">
      <stop style="stop-color:black;stop-opacity:1;" offset="0" id="stop23641" />
    </linearGradient>
    <linearGradient id="linearGradient23427" inkscape:swatch="solid">
      <stop style="stop-color:red;stop-opacity:1;" offset="0" id="stop23425" />
    </linearGradient>
    <linearGradient id="linearGradient23317" inkscape:swatch="solid">
      <stop style="stop-color:black;stop-opacity:1;" offset="0" id="stop23315" />
    </linearGradient>
    <rect x="120" y="376" width="672" height="704" id="rect10998" />
    <rect x="232" y="936" width="600" height="496" id="rect2282" />
    <rect x="336" y="-904" width="712" height="696" id="rect2878" />
    <inkscape:path-effect effect="spiro" id="path-effect1188" is_visible="true" lpeversion="1" />
    <inkscape:path-effect effect="spiro" id="path-effect1151" is_visible="true" lpeversion="1" />
    <linearGradient id="linearGradient1076" inkscape:swatch="solid">
      <stop style="stop-color:black;stop-opacity:0.98823529;" offset="0" id="stop1074" />
    </linearGradient>
    <inkscape:path-effect effect="spiro" id="path-effect4686" is_visible="true" lpeversion="1" />
    <inkscape:path-effect effect="spiro" id="path-effect4682" is_visible="true" lpeversion="1" />
    <linearGradient id="linearGradient4325" inkscape:swatch="solid">
      <stop style="stop-color:red;stop-opacity:1;" offset="0" id="stop4323" />
    </linearGradient>
    <inkscape:path-effect effect="spiro" id="path-effect4235" is_visible="true" lpeversion="1" />
    <inkscape:path-effect effect="spiro" id="path-effect2087" is_visible="true" lpeversion="1" />
    <inkscape:path-effect effect="spiro" id="path-effect1593" is_visible="true" lpeversion="1" />
    <linearGradient id="linearGradient1056" inkscape:swatch="solid">
      <stop style="stop-color:red;stop-opacity:1;" offset="0" id="stop1054" />
    </linearGradient>
    <inkscape:path-effect effect="spiro" id="path-effect1051" is_visible="true" lpeversion="1" />
    <linearGradient id="linearGradient914" inkscape:swatch="solid">
      <stop style="stop-color:black;stop-opacity:1;" offset="0" id="stop912" />
    </linearGradient>
    <linearGradient id="linearGradient908" inkscape:swatch="solid">
      <stop style="stop-color:#0000f1;stop-opacity:1;" offset="0" id="stop906" />
    </linearGradient>
    <linearGradient id="linearGradient1055" inkscape:swatch="solid">
      <stop style="stop-color:#000000;stop-opacity:1;" offset="0" id="stop1053" />
    </linearGradient>
    <inkscape:path-effect effect="powerstroke" id="path-effect939" is_visible="true" lpeversion="1" offset_points="0,0.87411428" sort_points="true" interpolator_type="CubicBezierJohan" interpolator_beta="0.2" start_linecap_type="zerowidth" linejoin_type="extrp_arc" miter_limit="4" scale_width="1" end_linecap_type="zerowidth" />
    <inkscape:path-effect effect="powerstroke" id="path-effect933" is_visible="true" lpeversion="1" offset_points="1,0.132292" sort_points="true" interpolator_type="CubicBezierJohan" interpolator_beta="0.2" start_linecap_type="zerowidth" linejoin_type="extrp_arc" miter_limit="4" scale_width="1" end_linecap_type="zerowidth" />
    <linearGradient id="linearGradient6318" inkscape:swatch="solid">
      <stop id="stop6316" offset="0" style="stop-color:#000000;stop-opacity:1;" />
    </linearGradient>
    <inkscape:path-effect lpeversion="0" is_visible="true" id="path-effect6314" effect="spiro" />
    <inkscape:path-effect lpeversion="0" is_visible="true" id="path-effect6310" effect="spiro" />
    <linearGradient id="linearGradient6268" inkscape:swatch="solid">
      <stop id="stop6266" offset="0" style="stop-color:#000000;stop-opacity:1;" />
    </linearGradient>
    <linearGradient id="linearGradient4799" inkscape:swatch="solid">
      <stop id="stop4797" offset="0" style="stop-color:#000000;stop-opacity:1;" />
    </linearGradient>
    <inkscape:path-effect lpeversion="0" is_visible="true" id="path-effect4795" effect="spiro" />
    <linearGradient id="linearGradient4789" inkscape:swatch="solid">
      <stop id="stop4787" offset="0" style="stop-color:#000000;stop-opacity:1;" />
    </linearGradient>
    <inkscape:path-effect lpeversion="0" is_visible="true" id="path-effect4804" effect="spiro" />
    <inkscape:path-effect lpeversion="0" is_visible="true" id="path-effect4800" effect="spiro" />
    <inkscape:path-effect lpeversion="0" is_visible="true" id="path-effect4796" effect="spiro" />
    <inkscape:path-effect lpeversion="0" is_visible="true" id="path-effect4792" effect="spiro" />
    <inkscape:path-effect lpeversion="0" is_visible="true" id="path-effect4788" effect="spiro" />
    <inkscape:path-effect lpeversion="0" is_visible="true" id="path-effect4784" effect="spiro" />
    <inkscape:path-effect lpeversion="0" is_visible="true" id="path-effect4780" effect="spiro" />
    <inkscape:path-effect lpeversion="0" is_visible="true" id="path-effect13822" effect="spiro" />
    <inkscape:path-effect lpeversion="0" is_visible="true" id="path-effect14857" effect="spiro" />
    <inkscape:path-effect lpeversion="0" is_visible="true" id="path-effect14853" effect="spiro" />
    <inkscape:path-effect lpeversion="0" is_visible="true" id="path-effect14849" effect="spiro" />
    <inkscape:path-effect lpeversion="0" is_visible="true" id="path-effect14845" effect="spiro" />
    <linearGradient id="linearGradient14831" inkscape:swatch="solid">
      <stop id="stop14833" offset="0" style="stop-color:#030303;stop-opacity:1;" />
    </linearGradient>
    <linearGradient id="linearGradient14825" inkscape:swatch="solid">
      <stop id="stop14827" offset="0" style="stop-color:#000000;stop-opacity:1;" />
    </linearGradient>
    <linearGradient id="linearGradient14815" inkscape:swatch="solid">
      <stop id="stop14817" offset="0" style="stop-color:#000000;stop-opacity:1;" />
    </linearGradient>
    <inkscape:path-effect lpeversion="0" is_visible="true" id="path-effect8142" effect="spiro" />
    <inkscape:path-effect lpeversion="0" is_visible="true" id="path-effect8138" effect="spiro" />
    <inkscape:path-effect lpeversion="0" is_visible="true" id="path-effect8134" effect="spiro" />
    <inkscape:path-effect lpeversion="0" is_visible="true" id="path-effect8130" effect="spiro" />
    <inkscape:path-effect lpeversion="0" is_visible="true" id="path-effect8113" effect="spiro" />
    <inkscape:path-effect lpeversion="0" is_visible="true" id="path-effect8109" effect="spiro" />
    <inkscape:path-effect lpeversion="0" is_visible="true" id="path-effect8105" effect="spiro" />
    <inkscape:path-effect lpeversion="0" is_visible="true" id="path-effect8101" effect="spiro" />
    <inkscape:path-effect lpeversion="0" is_visible="true" id="path-effect8097" effect="spiro" />
    <inkscape:path-effect lpeversion="0" is_visible="true" id="path-effect8093" effect="spiro" />
    <inkscape:path-effect lpeversion="0" is_visible="true" id="path-effect8084" effect="spiro" />
    <inkscape:path-effect lpeversion="0" is_visible="true" id="path-effect8080" effect="spiro" />
    <inkscape:path-effect lpeversion="0" is_visible="true" id="path-effect8076" effect="spiro" />
    <inkscape:path-effect lpeversion="0" is_visible="true" id="path-effect8072" effect="spiro" />
    <font horiz-adv-x="1760" id="font87298" inkscape:label="fonte 1">
      <font-face units-per-em="1024" id="font-face87300" font-family="SVGFont 1" />
      <missing-glyph d="M0,0h1000v1024h-1000z" id="missing-glyph87302" />
    </font>
    <linearGradient inkscape:collect="always" xlink:href="#linearGradient17012" id="linearGradient17230" gradientUnits="userSpaceOnUse" x1="185.62581" y1="-4927.2307" x2="237.99415" y2="-4927.2307" />
    <linearGradient inkscape:collect="always" xlink:href="#linearGradient16884" id="linearGradient17232" gradientUnits="userSpaceOnUse" gradientTransform="matrix(2.4846118,0,0,2.1587824,-1805.2187,-5392.8821)" x1="806.84828" y1="233.51547" x2="848.10566" y2="233.51547" />
  </defs>
  <sodipodi:namedview inkscape:lockguides="false" inkscape:document-rotation="0" gridtolerance="10" inkscape:snap-path-mask="false" inkscape:snap-path-clip="false" inkscape:snap-tangential="false" inkscape:snap-perpendicular="false" objecttolerance="7" showguides="true" inkscape:snap-intersection-paths="true" inkscape:snap-bbox-midpoints="false" inkscape:snap-bbox-edge-midpoints="false" inkscape:bbox-nodes="false" inkscape:bbox-paths="false" inkscape:snap-center="true" inkscape:snap-others="true" inkscape:object-paths="true" inkscape:snap-smooth-nodes="true" inkscape:object-nodes="true" inkscape:snap-to-guides="true" inkscape:snap-page="true" inkscape:snap-grids="true" inkscape:snap-bbox="true" inkscape:snap-midpoints="true" inkscape:snap-object-midpoints="true" units="mm" inkscape:window-maximized="0" inkscape:window-y="0" inkscape:window-x="0" inkscape:window-height="1033" inkscape:window-width="1902" inkscape:snap-global="true" showborder="true" inkscape:snap-nodes="false" showgrid="true" inkscape:current-layer="layer1" inkscape:document-units="cm" inkscape:cy="900.85404" inkscape:cx="613.76869" inkscape:zoom="0.35355339" inkscape:pageshadow="2" inkscape:pageopacity="0.0" borderopacity="1.0" bordercolor="#666666" pagecolor="#ffffff" id="base" inkscape:snap-text-baseline="true" inkscape:guide-bbox="true" inkscape:pagecheckerboard="false">
    <inkscape:grid enabled="false" snapvisiblegridlinesonly="false" empspacing="2" dotted="true" spacingy="0.049999999" spacingx="0.049999999" units="mm" id="grid8068" type="xygrid" />
    <sodipodi:guide position="450.00001,450" orientation="0.70710678,-0.70710678" id="guide17483" />
    <sodipodi:guide position="0,450" orientation="-0.70710678,-0.70710678" id="guide17485" />
    <sodipodi:guide position="225.00001,224.99999" orientation="1,0" id="guide17487" />
  </sodipodi:namedview>
  <metadata id="metadata7">
    <rdf:RDF>
      <cc:Work rdf:about="">
        <dc:format>image/svg+xml</dc:format>
        <dc:type rdf:resource="http://purl.org/dc/dcmitype/StillImage" />
      </cc:Work>
    </rdf:RDF>
  </metadata>
  <g style="display:inline" transform="translate(0,4716.9293)" id="layer1" inkscape:groupmode="layer" inkscape:label="Calque 1">
    <ellipse style="fill:none;fill-opacity:1;stroke:black;stroke-width:9.99998;stroke-miterlimit:4;stroke-dasharray:none;stroke-opacity:1;paint-order:markers stroke fill" id="path905" cx="225.00002" cy="-4448.5249" ry="146.62016" rx="150" />
    <flowRoot xml:space="preserve" transform="matrix(0.26458334,0,0,0.26458334,0,-4716.9293)" style="fill:none;stroke:black;stroke-opacity:1;stroke-width:1px;stroke-linejoin:miter;stroke-linecap:butt;font-family:Arial;font-size:667.83435059px;line-height:188.97637939px;letter-spacing:0px;word-spacing:0px;-inkscape-font-specification:'Arial, Normal';writing-mode:tb-rl" id="flowRoot41463"><flowRegion id="flowRegion41465"><rect id="rect41467" width="1056" height="1384" x="-208" y="-1384" /></flowRegion><flowPara id="flowPara41469" /></flowRoot>
    <flowRoot xml:space="preserve" transform="matrix(0.26458334,0,0,0.26458334,0,-4716.9293)" style="fill:none;stroke:black;stroke-opacity:1;stroke-width:1px;stroke-linejoin:miter;stroke-linecap:butt;font-family:Arial;font-size:667.83435059px;line-height:188.97637939px;letter-spacing:0px;word-spacing:0px;-inkscape-font-specification:'Arial, Normal';writing-mode:tb-rl" id="flowRoot51775"><flowRegion id="flowRegion51777"><rect id="rect51779" width="1504" height="1544" x="-352" y="-2216" /></flowRegion><flowPara id="flowPara51781" /></flowRoot>
    <text xml:space="preserve" transform="matrix(0.26458334,0,0,0.26458334,0,-4716.9293)" id="text54071" style="fill:none;stroke:black;stroke-opacity:1;stroke-width:1px;stroke-linejoin:miter;stroke-linecap:butt;font-family:Arial;font-size:667.83435059px;line-height:188.97637939px;letter-spacing:0px;word-spacing:0px;-inkscape-font-specification:'Arial, Normal';writing-mode:tb-rl;white-space:pre;shape-inside:url(#rect54073)" />
    <text xml:space="preserve" transform="scale(1.070143,0.93445456)" id="text2403" style="font-style:normal;font-variant:normal;font-weight:normal;font-stretch:normal;font-size:139.727px;line-height:39.5385px;font-family:'Times New Roman';-inkscape-font-specification:'Times New Roman, Normal';font-variant-ligatures:normal;font-variant-caps:normal;font-variant-numeric:normal;font-variant-east-asian:normal;text-align:center;letter-spacing:0px;word-spacing:0px;writing-mode:lr-tb;text-anchor:middle;white-space:pre;fill:black;fill-opacity:1;stroke:none;stroke-width:9.99994;stroke-linecap:butt;stroke-linejoin:miter;stroke-miterlimit:4;stroke-dasharray:none;stroke-opacity:1" x="200.46184" y="-4939.6348"><tspan id="tspan2407" style="font-style:normal;font-variant:normal;font-weight:normal;font-stretch:normal;font-size:139.727px;font-family:'Times New Roman';-inkscape-font-specification:'Times New Roman, Normal';font-variant-ligatures:normal;font-variant-caps:normal;font-variant-numeric:normal;font-variant-east-asian:normal;text-align:center;writing-mode:lr-tb;text-anchor:middle;fill:black;fill-opacity:1;stroke:none;stroke-width:9.99994;stroke-miterlimit:4;stroke-dasharray:none">f</tspan></text>
  </g>
</svg>
