<?xml version="1.0" encoding="UTF-8" standalone="no"?>
<svg sodipodi:docname="station_relevement.svg" inkscape:version="1.1.1 (3bf5ae0d25, 2021-09-20)" version="1.1" id="svg2" viewBox="0 0 600 1600" height="160cm" width="60cm" xmlns:inkscape="http://www.inkscape.org/namespaces/inkscape" xmlns:sodipodi="http://sodipodi.sourceforge.net/DTD/sodipodi-0.dtd" xmlns="http://www.w3.org/2000/svg" xmlns:svg="http://www.w3.org/2000/svg" xmlns:rdf="http://www.w3.org/1999/02/22-rdf-syntax-ns#" xmlns:cc="http://creativecommons.org/ns#" xmlns:dc="http://purl.org/dc/elements/1.1/">
  <defs id="defs4">
    <inkscape:path-effect effect="bspline" id="path-effect2418" is_visible="true" lpeversion="1" weight="33.333333" steps="2" helper_size="0" apply_no_weight="true" apply_with_weight="true" only_selected="false" />
    <inkscape:path-effect effect="bspline" id="path-effect1777" is_visible="true" lpeversion="1" weight="33.333333" steps="2" helper_size="0" apply_no_weight="true" apply_with_weight="true" only_selected="false" />
    <inkscape:path-effect effect="bspline" id="path-effect1773" is_visible="true" lpeversion="1" weight="33.333333" steps="2" helper_size="0" apply_no_weight="true" apply_with_weight="true" only_selected="false" />
    <inkscape:path-effect effect="bspline" id="path-effect1769" is_visible="true" lpeversion="1" weight="33.333333" steps="2" helper_size="0" apply_no_weight="true" apply_with_weight="true" only_selected="false" />
    <inkscape:path-effect effect="bspline" id="path-effect1765" is_visible="true" lpeversion="1" weight="33.333333" steps="2" helper_size="0" apply_no_weight="true" apply_with_weight="true" only_selected="false" />
    <inkscape:path-effect effect="bspline" id="path-effect1761" is_visible="true" lpeversion="1" weight="33.333333" steps="2" helper_size="0" apply_no_weight="true" apply_with_weight="true" only_selected="false" />
    <inkscape:path-effect effect="bspline" id="path-effect2206" is_visible="true" lpeversion="1" weight="33.333333" steps="2" helper_size="0" apply_no_weight="true" apply_with_weight="true" only_selected="false" />
    <inkscape:path-effect effect="bspline" id="path-effect2089" is_visible="true" lpeversion="1" weight="33.333333" steps="2" helper_size="0" apply_no_weight="true" apply_with_weight="true" only_selected="false" />
    <inkscape:path-effect effect="bspline" id="path-effect1687" is_visible="true" lpeversion="1" weight="33.333333" steps="2" helper_size="0" apply_no_weight="true" apply_with_weight="true" only_selected="false" />
    <inkscape:path-effect effect="bspline" id="path-effect1424" is_visible="true" lpeversion="1" weight="33.333333" steps="2" helper_size="0" apply_no_weight="true" apply_with_weight="true" only_selected="false" />
    <inkscape:path-effect effect="bspline" id="path-effect1420" is_visible="true" lpeversion="1" weight="33.333333" steps="2" helper_size="0" apply_no_weight="true" apply_with_weight="true" only_selected="false" />
    <inkscape:path-effect effect="bspline" id="path-effect1416" is_visible="true" lpeversion="1" weight="33.333333" steps="2" helper_size="0" apply_no_weight="true" apply_with_weight="true" only_selected="false" />
    <marker style="overflow:visible" id="Arrow1Lend" refX="0" refY="0" orient="auto" inkscape:stockid="Arrow1Lend" inkscape:isstock="true">
      <path transform="matrix(-0.8,0,0,-0.8,-10,0)" style="fill:context-stroke;fill-rule:evenodd;stroke:context-stroke;stroke-width:1pt" d="M 0,0 5,-5 -12.5,0 5,5 Z" id="path1027" />
    </marker>
    <marker style="overflow:visible" id="Arrow1Lstart" refX="0" refY="0" orient="auto" inkscape:stockid="Arrow1Lstart" inkscape:isstock="true">
      <path transform="matrix(0.8,0,0,0.8,10,0)" style="fill:context-stroke;fill-rule:evenodd;stroke:context-stroke;stroke-width:1pt" d="M 0,0 5,-5 -12.5,0 5,5 Z" id="path1024" />
    </marker>
    <inkscape:path-effect effect="bspline" id="path-effect1022" is_visible="true" lpeversion="1" weight="33.333333" steps="2" helper_size="0" apply_no_weight="true" apply_with_weight="true" only_selected="false" />
    <inkscape:path-effect effect="bspline" id="path-effect1141" is_visible="true" lpeversion="1" weight="33.333333" steps="2" helper_size="0" apply_no_weight="true" apply_with_weight="true" only_selected="false" />
    <inkscape:path-effect effect="bspline" id="path-effect1137" is_visible="true" lpeversion="1" weight="33.333333" steps="2" helper_size="0" apply_no_weight="true" apply_with_weight="true" only_selected="false" />
    <inkscape:path-effect effect="spiro" id="path-effect2088" is_visible="true" lpeversion="1" />
    <inkscape:path-effect effect="spiro" id="path-effect1961" is_visible="true" lpeversion="1" />
    <inkscape:path-effect effect="spiro" id="path-effect1140" is_visible="true" lpeversion="1" />
    <inkscape:path-effect effect="spiro" id="path-effect1021" is_visible="true" lpeversion="1" />
    <inkscape:path-effect effect="spiro" id="path-effect1017" is_visible="true" lpeversion="1" />
    <inkscape:path-effect effect="spiro" id="path-effect1759" is_visible="true" lpeversion="1" />
    <inkscape:path-effect effect="spiro" id="path-effect1755" is_visible="true" lpeversion="1" />
    <inkscape:path-effect effect="spiro" id="path-effect1536" is_visible="true" lpeversion="1" />
    <inkscape:path-effect effect="spiro" id="path-effect1532" is_visible="true" lpeversion="1" />
    <inkscape:path-effect effect="spiro" id="path-effect1415" is_visible="true" lpeversion="1" />
    <rect x="336" y="-904" width="712" height="696" id="rect2878" />
    <inkscape:path-effect effect="spiro" id="path-effect1188" is_visible="true" lpeversion="1" />
    <inkscape:path-effect effect="spiro" id="path-effect1151" is_visible="true" lpeversion="1" />
    <linearGradient id="linearGradient1076" inkscape:swatch="solid">
      <stop style="stop-color:black;stop-opacity:0.98823529;" offset="0" id="stop1074" />
    </linearGradient>
    <inkscape:path-effect effect="spiro" id="path-effect4686" is_visible="true" lpeversion="1" />
    <inkscape:path-effect effect="spiro" id="path-effect4682" is_visible="true" lpeversion="1" />
    <linearGradient id="linearGradient4325" inkscape:swatch="solid">
      <stop style="stop-color:red;stop-opacity:1;" offset="0" id="stop4323" />
    </linearGradient>
    <inkscape:path-effect effect="spiro" id="path-effect4235" is_visible="true" lpeversion="1" />
    <inkscape:path-effect effect="spiro" id="path-effect2087" is_visible="true" lpeversion="1" />
    <inkscape:path-effect effect="spiro" id="path-effect1593" is_visible="true" lpeversion="1" />
    <linearGradient id="linearGradient1056" inkscape:swatch="solid">
      <stop style="stop-color:red;stop-opacity:1;" offset="0" id="stop1054" />
    </linearGradient>
    <inkscape:path-effect effect="spiro" id="path-effect1051" is_visible="true" lpeversion="1" />
    <linearGradient id="linearGradient914" inkscape:swatch="solid">
      <stop style="stop-color:black;stop-opacity:1;" offset="0" id="stop912" />
    </linearGradient>
    <linearGradient id="linearGradient908" inkscape:swatch="solid">
      <stop style="stop-color:#0000f1;stop-opacity:1;" offset="0" id="stop906" />
    </linearGradient>
    <linearGradient id="linearGradient1055" inkscape:swatch="solid">
      <stop style="stop-color:#000000;stop-opacity:1;" offset="0" id="stop1053" />
    </linearGradient>
    <inkscape:path-effect effect="powerstroke" id="path-effect939" is_visible="true" lpeversion="1" offset_points="0,0.87411428" sort_points="true" interpolator_type="CubicBezierJohan" interpolator_beta="0.2" start_linecap_type="zerowidth" linejoin_type="extrp_arc" miter_limit="4" scale_width="1" end_linecap_type="zerowidth" not_jump="false" />
    <inkscape:path-effect effect="powerstroke" id="path-effect933" is_visible="true" lpeversion="1" offset_points="1,0.132292" sort_points="true" interpolator_type="CubicBezierJohan" interpolator_beta="0.2" start_linecap_type="zerowidth" linejoin_type="extrp_arc" miter_limit="4" scale_width="1" end_linecap_type="zerowidth" not_jump="false" />
    <linearGradient id="linearGradient6318" inkscape:swatch="solid">
      <stop id="stop6316" offset="0" style="stop-color:#000000;stop-opacity:1;" />
    </linearGradient>
    <inkscape:path-effect lpeversion="0" is_visible="true" id="path-effect6314" effect="spiro" />
    <inkscape:path-effect lpeversion="0" is_visible="true" id="path-effect6310" effect="spiro" />
    <linearGradient id="linearGradient6268" inkscape:swatch="solid">
      <stop id="stop6266" offset="0" style="stop-color:#000000;stop-opacity:1;" />
    </linearGradient>
    <linearGradient id="linearGradient4799" inkscape:swatch="solid">
      <stop id="stop4797" offset="0" style="stop-color:#000000;stop-opacity:1;" />
    </linearGradient>
    <inkscape:path-effect lpeversion="0" is_visible="true" id="path-effect4795" effect="spiro" />
    <linearGradient id="linearGradient4789" inkscape:swatch="solid">
      <stop id="stop4787" offset="0" style="stop-color:#000000;stop-opacity:1;" />
    </linearGradient>
    <inkscape:path-effect lpeversion="0" is_visible="true" id="path-effect4804" effect="spiro" />
    <inkscape:path-effect lpeversion="0" is_visible="true" id="path-effect4800" effect="spiro" />
    <inkscape:path-effect lpeversion="0" is_visible="true" id="path-effect4796" effect="spiro" />
    <inkscape:path-effect lpeversion="0" is_visible="true" id="path-effect4792" effect="spiro" />
    <inkscape:path-effect lpeversion="0" is_visible="true" id="path-effect4788" effect="spiro" />
    <inkscape:path-effect lpeversion="0" is_visible="true" id="path-effect4784" effect="spiro" />
    <inkscape:path-effect lpeversion="0" is_visible="true" id="path-effect4780" effect="spiro" />
    <inkscape:path-effect lpeversion="0" is_visible="true" id="path-effect13822" effect="spiro" />
    <inkscape:path-effect lpeversion="0" is_visible="true" id="path-effect14857" effect="spiro" />
    <inkscape:path-effect lpeversion="0" is_visible="true" id="path-effect14853" effect="spiro" />
    <inkscape:path-effect lpeversion="0" is_visible="true" id="path-effect14849" effect="spiro" />
    <inkscape:path-effect lpeversion="0" is_visible="true" id="path-effect14845" effect="spiro" />
    <linearGradient id="linearGradient14831" inkscape:swatch="solid">
      <stop id="stop14833" offset="0" style="stop-color:#030303;stop-opacity:1;" />
    </linearGradient>
    <linearGradient id="linearGradient14825" inkscape:swatch="solid">
      <stop id="stop14827" offset="0" style="stop-color:#000000;stop-opacity:1;" />
    </linearGradient>
    <linearGradient id="linearGradient14815" inkscape:swatch="solid">
      <stop id="stop14817" offset="0" style="stop-color:#000000;stop-opacity:1;" />
    </linearGradient>
    <inkscape:path-effect lpeversion="0" is_visible="true" id="path-effect8142" effect="spiro" />
    <inkscape:path-effect lpeversion="0" is_visible="true" id="path-effect8138" effect="spiro" />
    <inkscape:path-effect lpeversion="0" is_visible="true" id="path-effect8134" effect="spiro" />
    <inkscape:path-effect lpeversion="0" is_visible="true" id="path-effect8130" effect="spiro" />
    <inkscape:path-effect lpeversion="0" is_visible="true" id="path-effect8113" effect="spiro" />
    <inkscape:path-effect lpeversion="0" is_visible="true" id="path-effect8109" effect="spiro" />
    <inkscape:path-effect lpeversion="0" is_visible="true" id="path-effect8105" effect="spiro" />
    <inkscape:path-effect lpeversion="0" is_visible="true" id="path-effect8101" effect="spiro" />
    <inkscape:path-effect lpeversion="0" is_visible="true" id="path-effect8097" effect="spiro" />
    <inkscape:path-effect lpeversion="0" is_visible="true" id="path-effect8093" effect="spiro" />
    <inkscape:path-effect lpeversion="0" is_visible="true" id="path-effect8084" effect="spiro" />
    <inkscape:path-effect lpeversion="0" is_visible="true" id="path-effect8080" effect="spiro" />
    <inkscape:path-effect lpeversion="0" is_visible="true" id="path-effect8076" effect="spiro" />
    <inkscape:path-effect lpeversion="0" is_visible="true" id="path-effect8072" effect="spiro" />
  </defs>
  <sodipodi:namedview inkscape:lockguides="false" inkscape:document-rotation="0" gridtolerance="10" inkscape:snap-path-mask="false" inkscape:snap-path-clip="false" inkscape:snap-tangential="false" inkscape:snap-perpendicular="false" objecttolerance="7" showguides="true" inkscape:snap-intersection-paths="true" inkscape:snap-bbox-midpoints="true" inkscape:snap-bbox-edge-midpoints="true" inkscape:bbox-nodes="true" inkscape:bbox-paths="true" inkscape:snap-center="true" inkscape:snap-others="true" inkscape:object-paths="true" inkscape:snap-smooth-nodes="true" inkscape:object-nodes="true" inkscape:snap-to-guides="true" inkscape:snap-page="true" inkscape:snap-grids="true" inkscape:snap-bbox="true" inkscape:snap-midpoints="true" inkscape:snap-object-midpoints="true" units="cm" inkscape:window-maximized="0" inkscape:window-y="0" inkscape:window-x="0" inkscape:window-height="1033" inkscape:window-width="1902" inkscape:snap-global="true" showborder="true" inkscape:snap-nodes="true" showgrid="true" inkscape:current-layer="layer1" inkscape:document-units="cm" inkscape:cy="1281.2501" inkscape:cx="3900.0002" inkscape:zoom="0.079999996" inkscape:pageshadow="2" inkscape:pageopacity="0.0" borderopacity="1.0" bordercolor="#666666" pagecolor="#ffffff" id="base" inkscape:snap-text-baseline="true" inkscape:guide-bbox="true" inkscape:pagecheckerboard="0">
    <inkscape:grid enabled="false" snapvisiblegridlinesonly="false" empspacing="2" dotted="true" spacingy="0.049999999" spacingx="0.049999999" units="mm" id="grid8068" type="xygrid" />
    <sodipodi:guide position="792.78824,600" orientation="1,0" id="guide1700" />
    <sodipodi:guide position="279.46371,105.62928" orientation="1,0" id="guide2266" />
    <sodipodi:guide position="279.46371,476.29863" orientation="0,-1" id="guide2381" />
  </sodipodi:namedview>
  <metadata id="metadata7">
    <rdf:RDF>
      <cc:Work rdf:about="">
        <dc:format>image/svg+xml</dc:format>
        <dc:type rdf:resource="http://purl.org/dc/dcmitype/StillImage" />
      </cc:Work>
    </rdf:RDF>
  </metadata>
  <g style="display:inline" transform="translate(0,4716.9293)" id="layer1" inkscape:groupmode="layer" inkscape:label="Calque 1">
    <path style="fill:none;fill-rule:evenodd;stroke:white;stroke-width:20;stroke-linecap:butt;stroke-linejoin:miter;stroke-miterlimit:4;stroke-dasharray:none;stroke-opacity:1" d="m 838.00988,-3737.5754 -215.3201,0.07" id="path1959" inkscape:original-d="m 838.00988,-3737.5754 -215.3201,0.07" inkscape:path-effect="#path-effect1961" />
    <path style="display:inline;fill:none;fill-rule:evenodd;stroke:white;stroke-width:20;stroke-linecap:butt;stroke-linejoin:miter;stroke-miterlimit:4;stroke-dasharray:none;stroke-opacity:1" d="m 836.36118,-3896.577 -215.3199,0.07" id="path1959-3" inkscape:original-d="m 836.36118,-3896.577 -215.3199,0.07" inkscape:path-effect="#path-effect2088" />
    <rect style="fill:none;stroke:black;stroke-width:30;stroke-linecap:round;stroke-linejoin:round;paint-order:fill markers stroke" id="rect1275" width="1425.3818" height="440.82797" x="3222.5586" y="61.972782" transform="rotate(-90)" />
    <circle style="fill:none;stroke:black;stroke-width:30;stroke-linecap:round;stroke-linejoin:round;paint-order:markers fill stroke" id="path1735" cx="279.46371" cy="-3647.0947" r="155" />
    <path style="fill:black;fill-rule:evenodd;stroke:black;stroke-width:10;stroke-linecap:butt;stroke-linejoin:miter;stroke-miterlimit:4;stroke-dasharray:none;stroke-opacity:1;fill-opacity:1" d="m 409.84337,-3568.2823 c 0,0 -259.10568,0 -259.10568,0 0,0 128.44337,-218.0689 128.44337,-218.0689 0,0 130.66231,218.0689 130.66231,218.0689 z" id="path2416" inkscape:path-effect="#path-effect2418" inkscape:original-d="M 409.84337,-3568.2823 H 150.73769 l 128.44337,-218.0689 z" />
  </g>
</svg>
