<?xml version="1.0" encoding="UTF-8" standalone="no"?>
<svg sodipodi:docname="compteur.svg" inkscape:version="1.1.1 (3bf5ae0d25, 2021-09-20)" version="1.1" id="svg2" viewBox="0 0 3999.994 3919.3014" height="3919.3015pt" width="3999.9941pt" xmlns:inkscape="http://www.inkscape.org/namespaces/inkscape" xmlns:sodipodi="http://sodipodi.sourceforge.net/DTD/sodipodi-0.dtd" xmlns="http://www.w3.org/2000/svg" xmlns:svg="http://www.w3.org/2000/svg" xmlns:rdf="http://www.w3.org/1999/02/22-rdf-syntax-ns#" xmlns:cc="http://creativecommons.org/ns#" xmlns:dc="http://purl.org/dc/elements/1.1/">
  <defs id="defs4">
    <marker style="overflow:visible" id="Arrow2Mend" refX="0" refY="0" orient="auto" inkscape:stockid="Arrow2Mend" inkscape:isstock="true">
      <path transform="scale(-0.6)" d="M 8.7185878,4.0337352 -2.2072895,0.01601326 8.7185884,-4.0017078 c -1.7454984,2.3720609 -1.7354408,5.6174519 -6e-7,8.035443 z" style="fill:context-stroke;fill-rule:evenodd;stroke:context-stroke;stroke-width:0.625;stroke-linejoin:round" id="path1079" />
    </marker>
    <marker style="overflow:visible" id="Arrow2Lend" refX="0" refY="0" orient="auto" inkscape:stockid="Arrow2Lend" inkscape:isstock="true">
      <path transform="matrix(-1.1,0,0,-1.1,-1.1,0)" d="M 8.7185878,4.0337352 -2.2072895,0.01601326 8.7185884,-4.0017078 c -1.7454984,2.3720609 -1.7354408,5.6174519 -6e-7,8.035443 z" style="fill:context-stroke;fill-rule:evenodd;stroke:context-stroke;stroke-width:0.625;stroke-linejoin:round" id="path1073" />
    </marker>
    <inkscape:path-effect effect="spiro" id="path-effect1017" is_visible="true" lpeversion="1" />
    <inkscape:path-effect effect="spiro" id="path-effect1759" is_visible="true" lpeversion="1" />
    <inkscape:path-effect effect="spiro" id="path-effect1755" is_visible="true" lpeversion="1" />
    <inkscape:path-effect effect="spiro" id="path-effect1536" is_visible="true" lpeversion="1" />
    <inkscape:path-effect effect="spiro" id="path-effect1532" is_visible="true" lpeversion="1" />
    <inkscape:path-effect effect="spiro" id="path-effect1415" is_visible="true" lpeversion="1" />
    <rect x="336" y="-904" width="712" height="696" id="rect2878" />
    <inkscape:path-effect effect="spiro" id="path-effect1188" is_visible="true" lpeversion="1" />
    <inkscape:path-effect effect="spiro" id="path-effect1151" is_visible="true" lpeversion="1" />
    <linearGradient id="linearGradient1076" inkscape:swatch="solid">
      <stop style="stop-color:black;stop-opacity:0.98823529;" offset="0" id="stop1074" />
    </linearGradient>
    <inkscape:path-effect effect="spiro" id="path-effect4686" is_visible="true" lpeversion="1" />
    <inkscape:path-effect effect="spiro" id="path-effect4682" is_visible="true" lpeversion="1" />
    <linearGradient id="linearGradient4325" inkscape:swatch="solid">
      <stop style="stop-color:red;stop-opacity:1;" offset="0" id="stop4323" />
    </linearGradient>
    <inkscape:path-effect effect="spiro" id="path-effect4235" is_visible="true" lpeversion="1" />
    <inkscape:path-effect effect="spiro" id="path-effect2087" is_visible="true" lpeversion="1" />
    <inkscape:path-effect effect="spiro" id="path-effect1593" is_visible="true" lpeversion="1" />
    <linearGradient id="linearGradient1056" inkscape:swatch="solid">
      <stop style="stop-color:red;stop-opacity:1;" offset="0" id="stop1054" />
    </linearGradient>
    <inkscape:path-effect effect="spiro" id="path-effect1051" is_visible="true" lpeversion="1" />
    <linearGradient id="linearGradient914" inkscape:swatch="solid">
      <stop style="stop-color:black;stop-opacity:1;" offset="0" id="stop912" />
    </linearGradient>
    <linearGradient id="linearGradient908" inkscape:swatch="solid">
      <stop style="stop-color:#0000f1;stop-opacity:1;" offset="0" id="stop906" />
    </linearGradient>
    <linearGradient id="linearGradient1055" inkscape:swatch="solid">
      <stop style="stop-color:#000000;stop-opacity:1;" offset="0" id="stop1053" />
    </linearGradient>
    <inkscape:path-effect effect="powerstroke" id="path-effect939" is_visible="true" lpeversion="1" offset_points="0,0.87411428" sort_points="true" interpolator_type="CubicBezierJohan" interpolator_beta="0.2" start_linecap_type="zerowidth" linejoin_type="extrp_arc" miter_limit="4" scale_width="1" end_linecap_type="zerowidth" not_jump="false" />
    <inkscape:path-effect effect="powerstroke" id="path-effect933" is_visible="true" lpeversion="1" offset_points="1,0.132292" sort_points="true" interpolator_type="CubicBezierJohan" interpolator_beta="0.2" start_linecap_type="zerowidth" linejoin_type="extrp_arc" miter_limit="4" scale_width="1" end_linecap_type="zerowidth" not_jump="false" />
    <linearGradient id="linearGradient6318" inkscape:swatch="solid">
      <stop id="stop6316" offset="0" style="stop-color:#000000;stop-opacity:1;" />
    </linearGradient>
    <inkscape:path-effect lpeversion="0" is_visible="true" id="path-effect6314" effect="spiro" />
    <inkscape:path-effect lpeversion="0" is_visible="true" id="path-effect6310" effect="spiro" />
    <linearGradient id="linearGradient6268" inkscape:swatch="solid">
      <stop id="stop6266" offset="0" style="stop-color:#000000;stop-opacity:1;" />
    </linearGradient>
    <linearGradient id="linearGradient4799" inkscape:swatch="solid">
      <stop id="stop4797" offset="0" style="stop-color:#000000;stop-opacity:1;" />
    </linearGradient>
    <inkscape:path-effect lpeversion="0" is_visible="true" id="path-effect4795" effect="spiro" />
    <linearGradient id="linearGradient4789" inkscape:swatch="solid">
      <stop id="stop4787" offset="0" style="stop-color:#000000;stop-opacity:1;" />
    </linearGradient>
    <inkscape:path-effect lpeversion="0" is_visible="true" id="path-effect4804" effect="spiro" />
    <inkscape:path-effect lpeversion="0" is_visible="true" id="path-effect4800" effect="spiro" />
    <inkscape:path-effect lpeversion="0" is_visible="true" id="path-effect4796" effect="spiro" />
    <inkscape:path-effect lpeversion="0" is_visible="true" id="path-effect4792" effect="spiro" />
    <inkscape:path-effect lpeversion="0" is_visible="true" id="path-effect4788" effect="spiro" />
    <inkscape:path-effect lpeversion="0" is_visible="true" id="path-effect4784" effect="spiro" />
    <inkscape:path-effect lpeversion="0" is_visible="true" id="path-effect4780" effect="spiro" />
    <inkscape:path-effect lpeversion="0" is_visible="true" id="path-effect13822" effect="spiro" />
    <inkscape:path-effect lpeversion="0" is_visible="true" id="path-effect14857" effect="spiro" />
    <inkscape:path-effect lpeversion="0" is_visible="true" id="path-effect14853" effect="spiro" />
    <inkscape:path-effect lpeversion="0" is_visible="true" id="path-effect14849" effect="spiro" />
    <inkscape:path-effect lpeversion="0" is_visible="true" id="path-effect14845" effect="spiro" />
    <linearGradient id="linearGradient14831" inkscape:swatch="solid">
      <stop id="stop14833" offset="0" style="stop-color:#030303;stop-opacity:1;" />
    </linearGradient>
    <linearGradient id="linearGradient14825" inkscape:swatch="solid">
      <stop id="stop14827" offset="0" style="stop-color:#000000;stop-opacity:1;" />
    </linearGradient>
    <linearGradient id="linearGradient14815" inkscape:swatch="solid">
      <stop id="stop14817" offset="0" style="stop-color:#000000;stop-opacity:1;" />
    </linearGradient>
    <inkscape:path-effect lpeversion="0" is_visible="true" id="path-effect8142" effect="spiro" />
    <inkscape:path-effect lpeversion="0" is_visible="true" id="path-effect8138" effect="spiro" />
    <inkscape:path-effect lpeversion="0" is_visible="true" id="path-effect8134" effect="spiro" />
    <inkscape:path-effect lpeversion="0" is_visible="true" id="path-effect8130" effect="spiro" />
    <inkscape:path-effect lpeversion="0" is_visible="true" id="path-effect8113" effect="spiro" />
    <inkscape:path-effect lpeversion="0" is_visible="true" id="path-effect8109" effect="spiro" />
    <inkscape:path-effect lpeversion="0" is_visible="true" id="path-effect8105" effect="spiro" />
    <inkscape:path-effect lpeversion="0" is_visible="true" id="path-effect8101" effect="spiro" />
    <inkscape:path-effect lpeversion="0" is_visible="true" id="path-effect8097" effect="spiro" />
    <inkscape:path-effect lpeversion="0" is_visible="true" id="path-effect8093" effect="spiro" />
    <inkscape:path-effect lpeversion="0" is_visible="true" id="path-effect8084" effect="spiro" />
    <inkscape:path-effect lpeversion="0" is_visible="true" id="path-effect8080" effect="spiro" />
    <inkscape:path-effect lpeversion="0" is_visible="true" id="path-effect8076" effect="spiro" />
    <inkscape:path-effect lpeversion="0" is_visible="true" id="path-effect8072" effect="spiro" />
  </defs>
  <sodipodi:namedview inkscape:lockguides="false" inkscape:document-rotation="0" gridtolerance="10" inkscape:snap-path-mask="false" inkscape:snap-path-clip="false" inkscape:snap-tangential="false" inkscape:snap-perpendicular="false" objecttolerance="7" showguides="true" inkscape:snap-intersection-paths="true" inkscape:snap-bbox-midpoints="true" inkscape:snap-bbox-edge-midpoints="false" inkscape:bbox-nodes="false" inkscape:bbox-paths="false" inkscape:snap-center="true" inkscape:snap-others="true" inkscape:object-paths="true" inkscape:snap-smooth-nodes="true" inkscape:object-nodes="true" inkscape:snap-to-guides="true" inkscape:snap-page="true" inkscape:snap-grids="false" inkscape:snap-bbox="true" inkscape:snap-midpoints="false" inkscape:snap-object-midpoints="true" units="pt" inkscape:window-maximized="0" inkscape:window-y="0" inkscape:window-x="0" inkscape:window-height="1033" inkscape:window-width="1902" inkscape:snap-global="true" showborder="true" inkscape:snap-nodes="true" showgrid="true" inkscape:current-layer="layer1" inkscape:document-units="pt" inkscape:cy="6120.7163" inkscape:cx="-4751.7576" inkscape:zoom="0.044194174" inkscape:pageshadow="2" inkscape:pageopacity="0.0" borderopacity="1.0" bordercolor="#666666" pagecolor="#ffffff" id="base" inkscape:snap-text-baseline="true" inkscape:guide-bbox="true" inkscape:pagecheckerboard="0" fit-margin-top="0" fit-margin-left="0" fit-margin-right="0" fit-margin-bottom="0" width="580pt">
    <inkscape:grid enabled="false" snapvisiblegridlinesonly="false" empspacing="2" dotted="true" spacingy="0.049999999" spacingx="0.049999999" units="mm" id="grid8068" type="xygrid" originx="-173.38481" originy="-161.87787" />
    <sodipodi:guide position="42.905566,3275.4331" orientation="0.70710678,-0.70710678" id="guide1054" inkscape:locked="false" />
    <sodipodi:guide position="622.90554,3275.4331" orientation="-0.70710678,-0.70710678" id="guide1062" />
    <sodipodi:guide position="571.68497,1721.5802" orientation="1,0" id="guide1152" />
  </sodipodi:namedview>
  <metadata id="metadata7">
    <rdf:RDF>
      <cc:Work rdf:about="">
        <dc:format>image/svg+xml</dc:format>
        <dc:type rdf:resource="http://purl.org/dc/dcmitype/StillImage" />
      </cc:Work>
    </rdf:RDF>
  </metadata>
  <g style="display:inline" transform="translate(3.3194832,4742.4059)" id="layer1" inkscape:groupmode="layer" inkscape:label="Calque 1">
    <g id="g1136" transform="matrix(1.0460415,0,0,1.0461016,-2.2622046,210.88284)" style="stroke-width:0.955958">
      <ellipse style="fill:none;fill-opacity:1;stroke:black;stroke-width:143.394;stroke-miterlimit:4;stroke-dasharray:none;stroke-opacity:1;paint-order:markers stroke fill" id="path905" cx="1906.04" cy="-2856.7307" rx="1516.908" ry="1484.3654" />
      <path style="fill:none;fill-rule:evenodd;stroke:black;stroke-width:143.394;stroke-linecap:butt;stroke-linejoin:miter;stroke-miterlimit:4;stroke-dasharray:none;stroke-opacity:1;marker-end:url(#Arrow2Mend)" d="M 49.134035,-1039.6636 3661.2711,-4574.3086" id="path1015" inkscape:path-effect="#path-effect1017" inkscape:original-d="M 49.134035,-1039.6636 3661.2711,-4574.3086" />
    </g>
  </g>
</svg>
