<?xml version="1.0" encoding="UTF-8" standalone="no"?>
<svg sodipodi:docname="robinet_quart_tour.svg" inkscape:version="1.1.1 (3bf5ae0d25, 2021-09-20)" version="1.1" id="svg2" viewBox="0 0 450 449.99999" height="45cm" width="45cm" xmlns:inkscape="http://www.inkscape.org/namespaces/inkscape" xmlns:sodipodi="http://sodipodi.sourceforge.net/DTD/sodipodi-0.dtd" xmlns="http://www.w3.org/2000/svg" xmlns:svg="http://www.w3.org/2000/svg" xmlns:rdf="http://www.w3.org/1999/02/22-rdf-syntax-ns#" xmlns:cc="http://creativecommons.org/ns#" xmlns:dc="http://purl.org/dc/elements/1.1/">
  <defs id="defs4">
    <rect x="167.93786" y="-344.71456" width="1157.8874" height="583.36309" id="rect2029" />
    <linearGradient id="linearGradient2180" inkscape:swatch="solid">
      <stop style="stop-color:#de0000;stop-opacity:1;" offset="0" id="stop2178" />
    </linearGradient>
    <inkscape:path-effect effect="bspline" id="path-effect2084" is_visible="true" lpeversion="1" weight="33.333333" steps="2" helper_size="0" apply_no_weight="true" apply_with_weight="true" only_selected="false" />
    <inkscape:path-effect effect="bspline" id="path-effect2080" is_visible="true" lpeversion="1" weight="33.333333" steps="2" helper_size="0" apply_no_weight="true" apply_with_weight="true" only_selected="false" />
    <inkscape:path-effect effect="bspline" id="path-effect1813" is_visible="true" lpeversion="1" weight="33.333333" steps="2" helper_size="0" apply_no_weight="true" apply_with_weight="true" only_selected="false" />
    <inkscape:path-effect effect="bspline" id="path-effect1803" is_visible="true" lpeversion="1" weight="33.333333" steps="2" helper_size="0" apply_no_weight="true" apply_with_weight="true" only_selected="false" />
    <inkscape:path-effect effect="bspline" id="path-effect1306" is_visible="true" lpeversion="1" weight="33.333333" steps="2" helper_size="0" apply_no_weight="true" apply_with_weight="true" only_selected="false" />
    <linearGradient id="linearGradient1213" inkscape:swatch="solid">
      <stop style="stop-color:black;stop-opacity:1;" offset="0" id="stop1211" />
    </linearGradient>
    <linearGradient id="linearGradient1171" inkscape:swatch="solid">
      <stop style="stop-color:#a9a9a9;stop-opacity:1;" offset="0" id="stop1169" />
    </linearGradient>
    <inkscape:path-effect effect="bspline" id="path-effect1015" is_visible="true" lpeversion="1" weight="33.333333" steps="2" helper_size="0" apply_no_weight="true" apply_with_weight="true" only_selected="false" />
    <linearGradient id="linearGradient1055" inkscape:swatch="solid">
      <stop style="stop-color:#000000;stop-opacity:1;" offset="0" id="stop1053" />
    </linearGradient>
    <inkscape:path-effect effect="powerstroke" id="path-effect939" is_visible="true" lpeversion="1" offset_points="0,0.87411428" sort_points="true" interpolator_type="CubicBezierJohan" interpolator_beta="0.2" start_linecap_type="zerowidth" linejoin_type="extrp_arc" miter_limit="4" scale_width="1" end_linecap_type="zerowidth" />
    <inkscape:path-effect effect="powerstroke" id="path-effect933" is_visible="true" lpeversion="1" offset_points="1,0.132292" sort_points="true" interpolator_type="CubicBezierJohan" interpolator_beta="0.2" start_linecap_type="zerowidth" linejoin_type="extrp_arc" miter_limit="4" scale_width="1" end_linecap_type="zerowidth" />
    <linearGradient id="linearGradient6318" inkscape:swatch="solid">
      <stop id="stop6316" offset="0" style="stop-color:#000000;stop-opacity:1;" />
    </linearGradient>
    <inkscape:path-effect lpeversion="0" is_visible="true" id="path-effect6314" effect="spiro" />
    <inkscape:path-effect lpeversion="0" is_visible="true" id="path-effect6310" effect="spiro" />
    <linearGradient id="linearGradient6268" inkscape:swatch="solid">
      <stop id="stop6266" offset="0" style="stop-color:#000000;stop-opacity:1;" />
    </linearGradient>
    <linearGradient id="linearGradient4799" inkscape:swatch="solid">
      <stop id="stop4797" offset="0" style="stop-color:#000000;stop-opacity:1;" />
    </linearGradient>
    <inkscape:path-effect lpeversion="0" is_visible="true" id="path-effect4795" effect="spiro" />
    <linearGradient id="linearGradient4789" inkscape:swatch="solid">
      <stop id="stop4787" offset="0" style="stop-color:#000000;stop-opacity:1;" />
    </linearGradient>
    <inkscape:path-effect lpeversion="0" is_visible="true" id="path-effect4804" effect="spiro" />
    <inkscape:path-effect lpeversion="0" is_visible="true" id="path-effect4800" effect="spiro" />
    <inkscape:path-effect lpeversion="0" is_visible="true" id="path-effect4796" effect="spiro" />
    <inkscape:path-effect lpeversion="0" is_visible="true" id="path-effect4792" effect="spiro" />
    <inkscape:path-effect lpeversion="0" is_visible="true" id="path-effect4788" effect="spiro" />
    <inkscape:path-effect lpeversion="0" is_visible="true" id="path-effect4784" effect="spiro" />
    <inkscape:path-effect lpeversion="0" is_visible="true" id="path-effect4780" effect="spiro" />
    <inkscape:path-effect lpeversion="0" is_visible="true" id="path-effect13822" effect="spiro" />
    <inkscape:path-effect lpeversion="0" is_visible="true" id="path-effect14857" effect="spiro" />
    <inkscape:path-effect lpeversion="0" is_visible="true" id="path-effect14853" effect="spiro" />
    <inkscape:path-effect lpeversion="0" is_visible="true" id="path-effect14849" effect="spiro" />
    <inkscape:path-effect lpeversion="0" is_visible="true" id="path-effect14845" effect="spiro" />
    <linearGradient id="linearGradient14831" inkscape:swatch="solid">
      <stop id="stop14833" offset="0" style="stop-color:#030303;stop-opacity:1;" />
    </linearGradient>
    <linearGradient id="linearGradient14825" inkscape:swatch="solid">
      <stop id="stop14827" offset="0" style="stop-color:#000000;stop-opacity:1;" />
    </linearGradient>
    <linearGradient id="linearGradient14815" inkscape:swatch="solid">
      <stop id="stop14817" offset="0" style="stop-color:#000000;stop-opacity:1;" />
    </linearGradient>
    <inkscape:path-effect lpeversion="0" is_visible="true" id="path-effect8142" effect="spiro" />
    <inkscape:path-effect lpeversion="0" is_visible="true" id="path-effect8138" effect="spiro" />
    <inkscape:path-effect lpeversion="0" is_visible="true" id="path-effect8134" effect="spiro" />
    <inkscape:path-effect lpeversion="0" is_visible="true" id="path-effect8130" effect="spiro" />
    <inkscape:path-effect lpeversion="0" is_visible="true" id="path-effect8113" effect="spiro" />
    <inkscape:path-effect lpeversion="0" is_visible="true" id="path-effect8109" effect="spiro" />
    <inkscape:path-effect lpeversion="0" is_visible="true" id="path-effect8105" effect="spiro" />
    <inkscape:path-effect lpeversion="0" is_visible="true" id="path-effect8101" effect="spiro" />
    <inkscape:path-effect lpeversion="0" is_visible="true" id="path-effect8097" effect="spiro" />
    <inkscape:path-effect lpeversion="0" is_visible="true" id="path-effect8093" effect="spiro" />
    <inkscape:path-effect lpeversion="0" is_visible="true" id="path-effect8084" effect="spiro" />
    <inkscape:path-effect lpeversion="0" is_visible="true" id="path-effect8080" effect="spiro" />
    <inkscape:path-effect lpeversion="0" is_visible="true" id="path-effect8076" effect="spiro" />
    <inkscape:path-effect lpeversion="0" is_visible="true" id="path-effect8072" effect="spiro" />
  </defs>
  <sodipodi:namedview inkscape:lockguides="false" inkscape:document-rotation="0" gridtolerance="10" inkscape:snap-path-mask="false" inkscape:snap-path-clip="false" inkscape:snap-tangential="false" inkscape:snap-perpendicular="false" objecttolerance="7" showguides="true" inkscape:snap-intersection-paths="true" inkscape:snap-bbox-midpoints="true" inkscape:snap-bbox-edge-midpoints="true" inkscape:bbox-nodes="true" inkscape:bbox-paths="true" inkscape:snap-center="true" inkscape:snap-others="true" inkscape:object-paths="true" inkscape:snap-smooth-nodes="true" inkscape:object-nodes="true" inkscape:snap-to-guides="true" inkscape:snap-page="true" inkscape:snap-grids="true" inkscape:snap-bbox="true" inkscape:snap-midpoints="true" inkscape:snap-object-midpoints="true" units="cm" inkscape:window-maximized="1" inkscape:window-y="-9" inkscape:window-x="-9" inkscape:window-height="1051" inkscape:window-width="1920" inkscape:snap-global="true" showborder="true" inkscape:snap-nodes="true" showgrid="true" inkscape:current-layer="a1047" inkscape:document-units="cm" inkscape:cy="2196.4504" inkscape:cx="1856.1553" inkscape:zoom="0.11313709" inkscape:pageshadow="2" inkscape:pageopacity="0.0" borderopacity="1.0" bordercolor="#666666" pagecolor="#ffffff" id="base" inkscape:snap-text-baseline="true" inkscape:guide-bbox="true" inkscape:pagecheckerboard="0">
    <inkscape:grid enabled="false" snapvisiblegridlinesonly="false" empspacing="2" dotted="true" spacingy="0.049999999" spacingx="0.049999999" units="mm" id="grid8068" type="xygrid" />
    <sodipodi:guide position="450.00001,450.00001" orientation="0.70710678,-0.70710678" id="guide1094" />
    <sodipodi:guide position="-233.99089,355.74219" orientation="1,0" id="guide1764" />
    <sodipodi:guide position="0,450" orientation="-0.70710678,-0.70710678" id="guide905" />
    <sodipodi:guide position="218.65989,34.897015" orientation="0,-1" id="guide923" />
    <sodipodi:guide position="225,225" orientation="1,0" id="guide925" />
  </sodipodi:namedview>
  <metadata id="metadata7">
    <rdf:RDF>
      <cc:Work rdf:about="">
        <dc:format>image/svg+xml</dc:format>
        <dc:type rdf:resource="http://purl.org/dc/dcmitype/StillImage" />
      </cc:Work>
    </rdf:RDF>
  </metadata>
  <g style="display:inline" transform="translate(0,4716.9293)" id="layer1" inkscape:groupmode="layer" inkscape:label="Calque 1">
    <g style="stroke-width:1" transform="matrix(0.99999741,0,0,1,3815.7324,3307.3736)" id="g4875">
      <a id="a1047">
        <g id="g921" transform="matrix(0.55129034,0,0,0.5381681,-1611.6475,-3539.3625)" style="stroke-width:1.83592">
          <ellipse style="fill:black;fill-opacity:1;stroke:black;stroke-width:18.3592;stroke-linecap:round;stroke-linejoin:round;stroke-miterlimit:4;stroke-dasharray:none;paint-order:fill markers stroke" id="path1087" cx="-3589.9309" cy="-7820.0693" rx="195.00052" ry="195" />
          <g id="g2104" style="fill:#de0000;fill-opacity:1;stroke:black;stroke-width:85.4623;stroke-linecap:round;stroke-linejoin:round;stroke-miterlimit:3.5;stroke-dasharray:none" transform="matrix(0.93035594,0,0,0.79363834,-254.18247,-1572.8553)">
            <g id="g2013" style="fill:#de0000;fill-opacity:1;stroke:black;stroke-width:85.4623;stroke-linecap:round;stroke-linejoin:round;stroke-miterlimit:3.5;stroke-dasharray:none">
              <path style="fill:#de0000;fill-opacity:1;fill-rule:evenodd;stroke:black;stroke-width:85.4623;stroke-linecap:round;stroke-linejoin:round;stroke-miterlimit:3.5;stroke-dasharray:none;stroke-opacity:1" d="m -3581.7459,-7625.0693 c 0,0 -47.9608,38.1557 -47.9608,38.1557" id="path1801" inkscape:path-effect="#path-effect1803" inkscape:original-d="m -3581.7459,-7625.0693 -47.9608,38.1557" />
              <ellipse id="path1805" style="fill:#de0000;fill-opacity:1;stroke:black;stroke-width:85.4623;stroke-linecap:round;stroke-linejoin:round;stroke-miterlimit:3.5;stroke-dasharray:none" cx="-3629.7068" cy="-7586.9136" rx="0.013229202" ry="0.013229167" />
              <ellipse id="path1807" style="fill:#de0000;fill-opacity:1;stroke:black;stroke-width:85.4623;stroke-linecap:round;stroke-linejoin:round;stroke-miterlimit:3.5;stroke-dasharray:none" cx="-3629.7036" cy="-7586.916" rx="0.013229202" ry="0.013229167" />
              <ellipse id="path1809" style="fill:#de0000;fill-opacity:1;stroke:black;stroke-width:85.4623;stroke-linecap:round;stroke-linejoin:round;stroke-miterlimit:3.5;stroke-dasharray:none" cx="-3629.7166" cy="-7586.9136" rx="0.013229202" ry="0.013229167" />
              <path style="fill:#de0000;fill-opacity:1;fill-rule:evenodd;stroke:black;stroke-width:85.4623;stroke-linecap:round;stroke-linejoin:round;stroke-miterlimit:3.5;stroke-dasharray:none;stroke-opacity:1" d="m -3629.7166,-7586.9136 c 16.0011,0 31.9913,0 47.9708,0" id="path1811" inkscape:path-effect="#path-effect1813" inkscape:original-d="m -3629.7166,-7586.9136 c 16.0011,3e-4 31.9913,3e-4 47.9708,0" sodipodi:nodetypes="cc" />
            </g>
            <g id="g2013-5" style="display:inline;fill:#de0000;fill-opacity:1;stroke:black;stroke-width:85.4623;stroke-linecap:round;stroke-linejoin:round;stroke-miterlimit:3.5;stroke-dasharray:none" transform="matrix(-1,0,0,1,-7163.0566,0.04818423)">
              <path style="fill:#de0000;fill-opacity:1;fill-rule:evenodd;stroke:black;stroke-width:85.4623;stroke-linecap:round;stroke-linejoin:round;stroke-miterlimit:3.5;stroke-dasharray:none;stroke-opacity:1" d="m -3581.7459,-7625.0693 c 0,0 -47.9608,38.1557 -47.9608,38.1557" id="path1801-9" inkscape:path-effect="#path-effect2080" inkscape:original-d="m -3581.7459,-7625.0693 -47.9608,38.1557" />
              <ellipse id="path1805-3" style="fill:#de0000;fill-opacity:1;stroke:black;stroke-width:85.4623;stroke-linecap:round;stroke-linejoin:round;stroke-miterlimit:3.5;stroke-dasharray:none" cx="-3629.7068" cy="-7586.9136" rx="0.013229202" ry="0.013229167" />
              <ellipse id="path1807-7" style="fill:#de0000;fill-opacity:1;stroke:black;stroke-width:85.4623;stroke-linecap:round;stroke-linejoin:round;stroke-miterlimit:3.5;stroke-dasharray:none" cx="-3629.7036" cy="-7586.916" rx="0.013229202" ry="0.013229167" />
              <ellipse id="path1809-1" style="fill:#de0000;fill-opacity:1;stroke:black;stroke-width:85.4623;stroke-linecap:round;stroke-linejoin:round;stroke-miterlimit:3.5;stroke-dasharray:none" cx="-3629.7166" cy="-7586.9136" rx="0.013229202" ry="0.013229167" />
              <path style="fill:#de0000;fill-opacity:1;fill-rule:evenodd;stroke:black;stroke-width:85.4623;stroke-linecap:round;stroke-linejoin:round;stroke-miterlimit:3.5;stroke-dasharray:none;stroke-opacity:1" d="m -3629.7166,-7586.9136 c 16.0011,0 31.9913,0 47.9708,0" id="path1811-3" inkscape:path-effect="#path-effect2084" inkscape:original-d="m -3629.7166,-7586.9136 c 16.0011,3e-4 31.9913,3e-4 47.9708,0" sodipodi:nodetypes="cc" />
            </g>
          </g>
        </g>
        <text xml:space="preserve" transform="matrix(0,-3.5664399,3.5041065,0,-2569.5315,-3219.5262)" id="text2027" style="font-style:normal;font-variant:normal;font-weight:normal;font-stretch:normal;font-size:45.3543px;line-height:12.8339px;font-family:Arial;-inkscape-font-specification:'Arial, Normal';font-variant-ligatures:normal;font-variant-caps:normal;font-variant-numeric:normal;font-variant-east-asian:normal;letter-spacing:0px;word-spacing:0px;writing-mode:tb-rl;white-space:pre;shape-inside:url(#rect2029);fill:black;stroke:black;stroke-width:0.074844px;stroke-linecap:butt;stroke-linejoin:miter;stroke-opacity:1"><tspan x="1319.4092" y="-344.71484" id="tspan5530">1/4 T</tspan></text>
      </a>
    </g>
  </g>
</svg>
