<?xml version="1.0" encoding="UTF-8" standalone="no"?>
<svg
   sodipodi:docname="smdev=avp_coffret.svg"
   inkscape:version="1.1 (c68e22c387, 2021-05-23)"
   version="1.1"
   id="svg2"
   viewBox="0 0 450 449.99999"
   height="45cm"
   width="45cm"
   xmlns:inkscape="http://www.inkscape.org/namespaces/inkscape"
   xmlns:sodipodi="http://sodipodi.sourceforge.net/DTD/sodipodi-0.dtd"
   xmlns="http://www.w3.org/2000/svg"
   xmlns:svg="http://www.w3.org/2000/svg"
   xmlns:rdf="http://www.w3.org/1999/02/22-rdf-syntax-ns#"
   xmlns:cc="http://creativecommons.org/ns#"
   xmlns:dc="http://purl.org/dc/elements/1.1/"><defs
   id="defs4">
  <linearGradient
     id="linearGradient1055"
     inkscape:swatch="solid">
    <stop
       style="stop-color:#000000;stop-opacity:1;"
       offset="0"
       id="stop1053" />
  </linearGradient>
  <inkscape:path-effect
     effect="powerstroke"
     id="path-effect939"
     is_visible="true"
     lpeversion="1"
     offset_points="0,0.87411428"
     sort_points="true"
     interpolator_type="CubicBezierJohan"
     interpolator_beta="0.2"
     start_linecap_type="zerowidth"
     linejoin_type="extrp_arc"
     miter_limit="4"
     scale_width="1"
     end_linecap_type="zerowidth" />
  <inkscape:path-effect
     effect="powerstroke"
     id="path-effect933"
     is_visible="true"
     lpeversion="1"
     offset_points="1,0.132292"
     sort_points="true"
     interpolator_type="CubicBezierJohan"
     interpolator_beta="0.2"
     start_linecap_type="zerowidth"
     linejoin_type="extrp_arc"
     miter_limit="4"
     scale_width="1"
     end_linecap_type="zerowidth" />
  <linearGradient
     id="linearGradient6318"
     inkscape:swatch="solid">
    <stop
       id="stop6316"
       offset="0"
       style="stop-color:#000000;stop-opacity:1;" />
  </linearGradient>
  <inkscape:path-effect
     lpeversion="0"
     is_visible="true"
     id="path-effect6314"
     effect="spiro" />
  <inkscape:path-effect
     lpeversion="0"
     is_visible="true"
     id="path-effect6310"
     effect="spiro" />
  <linearGradient
     id="linearGradient6268"
     inkscape:swatch="solid">
    <stop
       id="stop6266"
       offset="0"
       style="stop-color:#000000;stop-opacity:1;" />
  </linearGradient>
  <linearGradient
     id="linearGradient4799"
     inkscape:swatch="solid">
    <stop
       id="stop4797"
       offset="0"
       style="stop-color:#000000;stop-opacity:1;" />
  </linearGradient>
  <inkscape:path-effect
     lpeversion="0"
     is_visible="true"
     id="path-effect4795"
     effect="spiro" />
  <linearGradient
     id="linearGradient4789"
     inkscape:swatch="solid">
    <stop
       id="stop4787"
       offset="0"
       style="stop-color:#000000;stop-opacity:1;" />
  </linearGradient>
  <inkscape:path-effect
     lpeversion="0"
     is_visible="true"
     id="path-effect4804"
     effect="spiro" />
  <inkscape:path-effect
     lpeversion="0"
     is_visible="true"
     id="path-effect4800"
     effect="spiro" />
  <inkscape:path-effect
     lpeversion="0"
     is_visible="true"
     id="path-effect4796"
     effect="spiro" />
  <inkscape:path-effect
     lpeversion="0"
     is_visible="true"
     id="path-effect4792"
     effect="spiro" />
  <inkscape:path-effect
     lpeversion="0"
     is_visible="true"
     id="path-effect4788"
     effect="spiro" />
  <inkscape:path-effect
     lpeversion="0"
     is_visible="true"
     id="path-effect4784"
     effect="spiro" />
  <inkscape:path-effect
     lpeversion="0"
     is_visible="true"
     id="path-effect4780"
     effect="spiro" />
  <inkscape:path-effect
     lpeversion="0"
     is_visible="true"
     id="path-effect13822"
     effect="spiro" />
  <inkscape:path-effect
     lpeversion="0"
     is_visible="true"
     id="path-effect14857"
     effect="spiro" />
  <inkscape:path-effect
     lpeversion="0"
     is_visible="true"
     id="path-effect14853"
     effect="spiro" />
  <inkscape:path-effect
     lpeversion="0"
     is_visible="true"
     id="path-effect14849"
     effect="spiro" />
  <inkscape:path-effect
     lpeversion="0"
     is_visible="true"
     id="path-effect14845"
     effect="spiro" />
  <linearGradient
     id="linearGradient14831"
     inkscape:swatch="solid">
    <stop
       id="stop14833"
       offset="0"
       style="stop-color:#030303;stop-opacity:1;" />
  </linearGradient>
  <linearGradient
     id="linearGradient14825"
     inkscape:swatch="solid">
    <stop
       id="stop14827"
       offset="0"
       style="stop-color:#000000;stop-opacity:1;" />
  </linearGradient>
  <linearGradient
     id="linearGradient14815"
     inkscape:swatch="solid">
    <stop
       id="stop14817"
       offset="0"
       style="stop-color:#000000;stop-opacity:1;" />
  </linearGradient>
  <inkscape:path-effect
     lpeversion="0"
     is_visible="true"
     id="path-effect8142"
     effect="spiro" />
  <inkscape:path-effect
     lpeversion="0"
     is_visible="true"
     id="path-effect8138"
     effect="spiro" />
  <inkscape:path-effect
     lpeversion="0"
     is_visible="true"
     id="path-effect8134"
     effect="spiro" />
  <inkscape:path-effect
     lpeversion="0"
     is_visible="true"
     id="path-effect8130"
     effect="spiro" />
  <inkscape:path-effect
     lpeversion="0"
     is_visible="true"
     id="path-effect8113"
     effect="spiro" />
  <inkscape:path-effect
     lpeversion="0"
     is_visible="true"
     id="path-effect8109"
     effect="spiro" />
  <inkscape:path-effect
     lpeversion="0"
     is_visible="true"
     id="path-effect8105"
     effect="spiro" />
  <inkscape:path-effect
     lpeversion="0"
     is_visible="true"
     id="path-effect8101"
     effect="spiro" />
  <inkscape:path-effect
     lpeversion="0"
     is_visible="true"
     id="path-effect8097"
     effect="spiro" />
  <inkscape:path-effect
     lpeversion="0"
     is_visible="true"
     id="path-effect8093"
     effect="spiro" />
  <inkscape:path-effect
     lpeversion="0"
     is_visible="true"
     id="path-effect8084"
     effect="spiro" />
  <inkscape:path-effect
     lpeversion="0"
     is_visible="true"
     id="path-effect8080"
     effect="spiro" />
  <inkscape:path-effect
     lpeversion="0"
     is_visible="true"
     id="path-effect8076"
     effect="spiro" />
  <inkscape:path-effect
     lpeversion="0"
     is_visible="true"
     id="path-effect8072"
     effect="spiro" />
</defs>
<sodipodi:namedview
   inkscape:lockguides="false"
   inkscape:document-rotation="0"
   gridtolerance="10"
   inkscape:snap-path-mask="false"
   inkscape:snap-path-clip="false"
   inkscape:snap-tangential="false"
   inkscape:snap-perpendicular="false"
   objecttolerance="7"
   showguides="true"
   inkscape:snap-intersection-paths="true"
   inkscape:snap-bbox-midpoints="true"
   inkscape:snap-bbox-edge-midpoints="true"
   inkscape:bbox-nodes="true"
   inkscape:bbox-paths="true"
   inkscape:snap-center="true"
   inkscape:snap-others="true"
   inkscape:object-paths="true"
   inkscape:snap-smooth-nodes="true"
   inkscape:object-nodes="true"
   inkscape:snap-to-guides="true"
   inkscape:snap-page="true"
   inkscape:snap-grids="true"
   inkscape:snap-bbox="true"
   inkscape:snap-midpoints="true"
   inkscape:snap-object-midpoints="true"
   units="cm"
   inkscape:window-maximized="1"
   inkscape:window-y="-9"
   inkscape:window-x="-9"
   inkscape:window-height="1051"
   inkscape:window-width="1920"
   inkscape:snap-global="true"
   showborder="true"
   inkscape:snap-nodes="true"
   showgrid="true"
   inkscape:current-layer="a1047"
   inkscape:document-units="cm"
   inkscape:cy="-1012"
   inkscape:cx="-780"
   inkscape:zoom="0.125"
   inkscape:pageshadow="2"
   inkscape:pageopacity="0.0"
   borderopacity="1.0"
   bordercolor="#666666"
   pagecolor="#ffffff"
   id="base"
   inkscape:snap-text-baseline="true"
   inkscape:guide-bbox="true"
   inkscape:pagecheckerboard="0">
  <inkscape:grid
     enabled="false"
     snapvisiblegridlinesonly="false"
     empspacing="2"
     dotted="true"
     spacingy="0.049999999"
     spacingx="0.049999999"
     units="mm"
     id="grid8068"
     type="xygrid" />
  <sodipodi:guide
     position="450.00001,450.00001"
     orientation="0.70710678,-0.70710678"
     id="guide1094" />
</sodipodi:namedview>
<metadata
   id="metadata7">
  <rdf:RDF>
    <cc:Work
       rdf:about="">
      <dc:format>image/svg+xml</dc:format>
      <dc:type
         rdf:resource="http://purl.org/dc/dcmitype/StillImage" />
    </cc:Work>
  </rdf:RDF>
</metadata>
<g
   style="display:inline"
   transform="translate(0,4716.9293)"
   id="layer1"
   inkscape:groupmode="layer"
   inkscape:label="Calque 1">
  <g
     style="stroke-width:1"
     transform="matrix(0.99999741,0,0,1,3815.7324,3307.3736)"
     id="g4875">
    <a
       id="a1047">
      <path
         style="display:inline;fill:#000000;stroke:#ff0000;stroke-width:10;stroke-linecap:square;stroke-linejoin:miter;stroke-miterlimit:4;stroke-dasharray:none;stroke-opacity:1"
         d="m -3391.3412,-7998.9029 -400.001,0.1"
         id="path877" />
      <path
         id="path877-0"
         d="m -3791.2422,-7598.8029 -0.1,-400"
         style="display:inline;fill:#ff0000;stroke:#ff0000;stroke-width:9.99999;stroke-linecap:square;stroke-linejoin:miter;stroke-miterlimit:4;stroke-dasharray:none;stroke-opacity:1;fill-opacity:1" />
      <path
         style="display:inline;fill:#000000;stroke:#ff0000;stroke-width:9.99999;stroke-linecap:square;stroke-linejoin:miter;stroke-miterlimit:4;stroke-dasharray:none;stroke-opacity:1"
         d="m -3391.1412,-7598.9029 -0.1,-400"
         id="path877-0-3" />
      <path
         style="display:inline;fill:#000000;stroke:#ff0000;stroke-width:9.99999;stroke-linecap:square;stroke-linejoin:miter;stroke-miterlimit:4;stroke-dasharray:none;stroke-opacity:1"
         d="m -3791.2422,-7598.8029 400.001,-0.1"
         id="path877-0-4" />
      <path
         id="path1061-0"
         d="m -3791.3422,-7998.8029 -1.8532,401.9532 401.9542,-402.0532 z"
         style="display:inline;fill:#ff0000;fill-opacity:1;stroke:#000000;stroke-width:0;stroke-linecap:butt;stroke-linejoin:miter;stroke-miterlimit:4;stroke-dasharray:none;stroke-opacity:1"
         sodipodi:nodetypes="cccc" />
    </a>
  </g>
</g>
</svg>
